<svg xmlns="http://www.w3.org/2000/svg" viewBox="0 0 21.131 14.264">
    <path id="Icon_zocial-email"
          d="M.072,17.069V5.331q0-.02.061-.387l6.908,5.91L.154,17.477a1.727,1.727,0,0,1-.082-.408ZM.989,4.129a.878.878,0,0,1,.346-.061h18.6a1.154,1.154,0,0,1,.367.061l-6.928,5.93-.917.734L10.648,12.28,8.834,10.793l-.917-.734Zm.02,14.142,6.949-6.664,2.69,2.18,2.69-2.18,6.949,6.664a.978.978,0,0,1-.346.061H1.335a.923.923,0,0,1-.326-.061Zm13.245-7.417,6.888-5.91a1.216,1.216,0,0,1,.061.387V17.069a1.562,1.562,0,0,1-.061.408Z"
          transform="translate(-0.072 -4.068)"/>
</svg>
